{
  "name": "clickup_netsuite_integration",
  "version": "0.0.17",
  "summary":"ClickUp NetSuite Integration",
  "description":"Integrate ClickUp and NetSuite",
  "author":"Eugene",
  "home_page":"https://repository/pf_syncpack_test",
  "requires_dist":[
    "future",
    "ipaascommon",
    "base_steps_syncpack~=1.0",
    "servicenow_base_syncpack~=3.0"],
  "schedules": [
  ],
  "tags":["clickup_netsuite_integration"],
  "critical": [],
  "requires_is_version": ">=2.0.0"
}